<svg width="24" height="24" viewBox="0 0 24 24" fill="none" xmlns="http://www.w3.org/2000/svg">
<g id="Star">
<rect width="24" height="24" fill="white"/>
<path id="Star_2" d="M11.1033 2.81699C11.4701 2.07374 12.5299 2.07374 12.8967 2.81699L15.0736 7.22784C15.2193 7.52298 15.5008 7.72755 15.8266 7.77488L20.6942 8.48219C21.5144 8.60138 21.842 9.60935 21.2484 10.1879L17.7262 13.6213C17.4905 13.851 17.3829 14.182 17.4386 14.5064L18.2701 19.3544C18.4102 20.1713 17.5527 20.7942 16.8191 20.4086L12.4653 18.1196C12.174 17.9665 11.826 17.9665 11.5347 18.1196L7.18089 20.4086C6.44726 20.7942 5.58983 20.1713 5.72994 19.3544L6.56143 14.5064C6.61707 14.182 6.50952 13.851 6.27384 13.6213L2.75156 10.1879C2.15805 9.60935 2.48556 8.60138 3.30578 8.48219L8.17344 7.77488C8.49915 7.72755 8.78072 7.52298 8.92638 7.22784L11.1033 2.81699Z" fill="black" fill-opacity="0.1"/>
<mask id="mask0_670_8941" style="mask-type:alpha" maskUnits="userSpaceOnUse" x="2" y="2" width="20" height="19">
<path id="Star_3" d="M11.1033 2.81699C11.4701 2.07374 12.5299 2.07374 12.8967 2.81699L15.0736 7.22784C15.2193 7.52298 15.5008 7.72755 15.8266 7.77488L20.6942 8.48219C21.5144 8.60138 21.842 9.60935 21.2484 10.1879L17.7262 13.6213C17.4905 13.851 17.3829 14.182 17.4386 14.5064L18.2701 19.3544C18.4102 20.1713 17.5527 20.7942 16.8191 20.4086L12.4653 18.1196C12.174 17.9665 11.826 17.9665 11.5347 18.1196L7.18089 20.4086C6.44726 20.7942 5.58983 20.1713 5.72994 19.3544L6.56143 14.5064C6.61707 14.182 6.50952 13.851 6.27384 13.6213L2.75156 10.1879C2.15805 9.60935 2.48556 8.60138 3.30578 8.48219L8.17344 7.77488C8.49915 7.72755 8.78072 7.52298 8.92638 7.22784L11.1033 2.81699Z" fill="#C4C4C4"/>
</mask>
<g mask="url(#mask0_670_8941)">
<rect id="Fill" x="0.75" y="1" width="11.25" height="22" fill="#F4A403"/>
</g>
</g>
</svg>
