<svg width="20" height="20" viewBox="0 0 20 20" fill="none" xmlns="http://www.w3.org/2000/svg">
<g id="vuesax/linear/chart">
<g id="chart">
<path id="Vector" d="M1.6665 18.3333H18.3332" stroke="#ADB4BF" stroke-width="1.2" stroke-miterlimit="10" stroke-linecap="round" stroke-linejoin="round"/>
<path id="Vector_2" d="M8.125 3.33341V18.3334H11.875V3.33341C11.875 2.41675 11.5 1.66675 10.375 1.66675H9.625C8.5 1.66675 8.125 2.41675 8.125 3.33341Z" stroke="#ADB4BF" stroke-width="1.2" stroke-linecap="round" stroke-linejoin="round"/>
<path id="Vector_3" d="M2.5 8.33341V18.3334H5.83333V8.33341C5.83333 7.41675 5.5 6.66675 4.5 6.66675H3.83333C2.83333 6.66675 2.5 7.41675 2.5 8.33341Z" stroke="#ADB4BF" stroke-width="1.2" stroke-linecap="round" stroke-linejoin="round"/>
<path id="Vector_4" d="M14.1665 12.4999V18.3333H17.4998V12.4999C17.4998 11.5833 17.1665 10.8333 16.1665 10.8333H15.4998C14.4998 10.8333 14.1665 11.5833 14.1665 12.4999Z" stroke="#ADB4BF" stroke-width="1.2" stroke-linecap="round" stroke-linejoin="round"/>
</g>
</g>
</svg>
